{
  "layout": {
    "title": false,
    "customJS": ["md5.js"],
    "widgets": [{
      "enabled": false,
      "row": 1,
      "col": 1,
      "width": 4,
      "height": 4,
      "widget": "blockers",
      "job": "blockers",
      "config": "confluence-blockers"
    }, {
      "enabled": false,
      "row": 1,
      "col": 2,
      "width": 2,
      "height": 2,
      "widget": "fitness",
      "job": "fitness",
      "config": "fitness"
    }]
  },

  "config": {
    "confluence-blockers": {
      "timeout": 30000,
      "retryOnErrorTimes": 3,
      "interval": 120000,
      "jira_server": "https://jira.atlassian.com",
      "jql": "project = \"CONF\" AND updatedDate > -14d AND priority = Blocker"
    },
    "issuecount": {
      "interval": 300000,
      "title": "Blockers In The Last 14 Days",
      "jiraServer": "https://jira.atlassian.com",
      "sections": [{
        "title": "Confluence",
        "counts": [{
          "label": "Blockers",
          "jql": "project = \"CONF\" AND createdDate > -14d AND priority = Blocker"
        }]
      }, {
        "title": "JIRA",
        "counts": [{
          "label": "Blockers",
          "jql": "project = \"JRA\" AND createdDate > -14d AND priority = Blocker"
        }]
      }]
    },
    "fitness": {
      "_comment": "never gonna give you up, the one and only, rock music, gangnam style, i believe in a thing called love, flight of valkyries, mc hammer, push it, pump up the jam, along comes mary, smooth criminal, cant stop, eye of the tiger, burning heart, maniac",
      "media": ["dQw4w9WgXcQ", "z8f2mW1GFSI", "DP3MFBzMH2o", "CH1XGdu-hzQ", "sRYNYb30nxU", "3YOYlgvI1uE", "otCpCn0l4Wo", "vCadcBR95oU", "9EcjWd-O4jI", "5WLdLZnZQbQ", "CDl9ZMfj6aE", "BfOdWSiyWoc", "btPJPFnesV4", "lYlkYkHkZxs", "8NjbGr2nk2c"],
      "widgetTitle": "Daily Fitness",
      "activities": [{
        "name": "pushups",
        "cron": "00 30 10 * * 1-5",
        "title": "Pushup Time!",
        "announcement": "Time for morning push ups! With music presented by {0}",
        "hipchat": {
          "roomId": "00000",
          "from": "Sergeant",
          "message": "Time for some pushups!"
        }
      }, {
        "name": "planks",
        "cron": "00 00 15 * * 1-5",
        "title": "Planks",
        "announcement": "Get down for some serious planking! {0}",
        "hipchat": {
          "roomId": "00000",
          "from": "Sergeant",
          "message": "Time for some planks!"
        }
      }, {
        "name": "debug",
        "cron": "30 * * * * *",
        "title": "lets debug",
        "announcement": "yoyo debug {0}",
        "hipchat": {
          "roomId": "00000",
          "from": "Sergeant",
          "message": "Time for some pushups!"
        },
        "enabled": false
      }]
    },
    "manifesto": {
      "interval": 120000,
      "plugins": ["atlassian-connect-plugin", "jwt-plugin"],
      "products": ["jira", "confluence"],
      "environments": ["jirastudio-dev", "jirastudio-dog", "jirastudio-prd"],
      "colors": {
        "jirastudio-dev": "red"
      }
    },
  }
}